FF Factors
…
reg_data <- aapl %>% 
    as_tibble() %>% 
    add_column(Date=index(aapl), .before = 1)
reg_data <- reg_data %>% 
    mutate(year=year(Date),
           mon=month(Date))
data <- data %>% mutate_at(vars(-Date), ~./100)
data <- data %>% 
    mutate(year=year(Date),
           mon=month(Date))
reg_data <- reg_data %>% 
    left_join(data[,-1], by=c("year","mon"))
reg_data

## # A tibble: 121 × 14
##    Date       AAPL.Open AAPL.High AAPL.Low AAPL.Close AAPL.Volume AAPL.Adjusted
##    <date>         <dbl>     <dbl>    <dbl>      <dbl>       <dbl>         <dbl>
##  1 2014-08-29      25.7      25.7     25.5       25.6   178380000          22.7
##  2 2014-09-30      25.2      25.4     25.1       25.2   221056400          22.3
##  3 2014-10-31      27.0      27.0     26.8       27     178557200          23.9
##  4 2014-11-28      29.8      29.9     29.5       29.7    99257600          26.5
##  5 2014-12-31      28.2      28.3     27.6       27.6   165613600          24.6
##  6 2015-01-30      29.6      30       29.2       29.3   334982000          26.1
##  7 2015-02-27      32.5      32.6     32.1       32.1   248059200          28.7
##  8 2015-03-31      31.5      31.6     31.1       31.1   168362400          27.8
##  9 2015-04-30      32.2      32.2     31.1       31.3   332781600          28.0
## 10 2015-05-29      32.8      32.9     32.5       32.6   203538000          29.2
## # ℹ 111 more rows
## # ℹ 7 more variables: return <dbl>, year <dbl>, mon <dbl>, `Mkt-RF` <dbl>,
## #   SMB <dbl>, HML <dbl>, RF <dbl>
…
