CAPM
…
\(\alpha_i>0\) means positive abnormal return, this could be caused, for example, by positive estimate of the security’s prospect, or you think the security is underpriced based on private information you are aware of, and given time, the price will converge to its “fair value” and therefore offers an attractive expected return.

If CAPM holds, then when security prices are in equilibrium, \(\alpha_i=0\), i.e., any positive/negative alpha’s will be driven to zero in the end.

## read in .csv data
# put the data in a folder called "data"
# the code below works on macos, if using Windows, need to 
# replace the forward slash ("/") with backslash ("\")
f_name <- "data/NO_capm_2015-2022_monthly.csv"
data_return <- read_csv(f_name)
data_group <- data_return %>% 
    group_by(ISIN) 
data_group %>% group_keys()

## # A tibble: 142 × 1
##    ISIN        
##    <chr>       
##  1 BMG0451H1170
##  2 BMG067231032
##  3 BMG173841013
##  4 BMG1738J1247
##  5 BMG359472021
##  6 BMG3682E1921
##  7 BMG5137R1088
##  8 BMG671801022
##  9 BMG763301022
## 10 BMG850801025
## # ℹ 132 more rows
…
