EMH and RW
…
It <- ifelse(et>0,1,0)
It_1 <- c(NA, head(It, -1))
data <- cbind(et, It, It_1) %>% as_tibble()
data <- data %>% mutate(yt = It*It_1 + (1-It)*(1-It_1))
data

## # A tibble: 100 × 4
##         et    It  It_1    yt
##      <dbl> <dbl> <dbl> <dbl>
##  1 -0.560      0    NA    NA
##  2 -0.230      0     0     1
##  3  1.56       1     0     0
##  4  0.0705     1     1     1
##  5  0.129      1     1     1
##  6  1.72       1     1     1
##  7  0.461      1     1     1
##  8 -1.27       0     1     0
##  9 -0.687      0     0     1
## 10 -0.446      0     0     1
## # ℹ 90 more rows
…
