Equity Performance Evaluation
…
\(\square\)

From prices to returns.

f_name <- "data/Titlon_equity_price_2014-2023_daily.csv"
titlon_data <- read_csv(f_name)
## group by ISIN, calculate returns
titlon_group <- titlon_data %>% group_by(ISIN)
groups <- titlon_group %>% group_split()
group_key <- titlon_group %>% 
    group_keys() %>% 
    mutate(id = row_number())
group_key

## # A tibble: 501 × 2
##    ISIN            id
##    <chr>        <int>
##  1 AU000000CSS3     1
##  2 AU0000057408     2
##  3 BMG0451H1170     3
##  4 BMG0670A1099     4
##  5 BMG067231032     5
##  6 BMG0702P1086     6
##  7 BMG1466R1732     7
##  8 BMG1466R2078     8
##  9 BMG173841013     9
## 10 BMG1738J1247    10
## # ℹ 491 more rows
…
Loop through assets to calculate monthly returns from daily price data.

# calculate monthly return
data_return <- titlon_group %>%  
    group_modify( ~{
        xts(.$AdjustedPrice, order.by = .$Date) %>%
            to.monthly(indexAt="last", OHLC=FALSE) %>% 
            Return.calculate() %>% 
            data.frame() %>% 
            rownames_to_column(var="Date")
    })  %>% ungroup()
colnames(data_return)[3] <- "Return_monthly"
data_return

## # A tibble: 30,351 × 3
##    ISIN         Date       Return_monthly
##    <chr>        <chr>               <dbl>
##  1 AU000000CSS3 2021-05-31  NA           
##  2 AU000000CSS3 2021-06-30  -0.01470588  
##  3 AU000000CSS3 2021-07-29   0.07462687  
##  4 AU000000CSS3 2021-08-30   0.2083333   
##  5 AU000000CSS3 2021-09-30  -0.1954023   
##  6 AU000000CSS3 2021-10-29   0.1142857   
##  7 AU000000CSS3 2021-11-29  -0.0001282051
##  8 AU000000CSS3 2021-12-29  -0.06398256  
##  9 AU000000CSS3 2022-01-24  -0.01931507  
## 10 AU000000CSS3 2022-02-28   0.003492108 
## # ℹ 30,341 more rows

## equity identifiers, ensure one-to-one mapping
select <- dplyr::select
unique_id <- titlon_data %>% 
    distinct(ISIN, .keep_all = TRUE) %>% 
    select(all_of(c("SecurityId", "CompanyId", "Symbol", "ISIN",
                    "Name", "Sector")))
unique_id

## # A tibble: 501 × 6
##    SecurityId CompanyId Symbol ISIN         Name              
##         <dbl>     <dbl> <chr>  <chr>        <chr>             
##  1    1304857     12720 2020   BMG9156K1018 2020 Bulkers      
##  2    1301972     12440 FIVEPG DK0060945467 5th Planet Games  
##  3         NA        NA AASB   NO0010672181 Aasen Sparebank   
##  4       6085      2017 ABG    NO0003021909 ABG Sundal Collier
##  5    1301198     12348 ABL    NO0010715394 ABL GROUP         
##  6    1304655     12701 ADE    NO0010844038 Adevinta          
##  7    1304652     12701 ADEA   NO0010843998 Adevinta ser. A   
##  8         NA        NA ADS    CY0108052115 ADS Crude Carriers
##  9    1251504     11273 AEGA   NO0010626559 Aega              
## 10         NA        NA AEGA   NO0012958539 AEGA              
##    Sector                
##    <chr>                 
##  1 Industrials           
##  2 Consumer Discretionary
##  3 Financials            
##  4 Financials            
##  5 Industrials           
##  6 Consumer Discretionary
##  7 Consumer Discretionary
##  8 Industrials           
##  9 Financials            
## 10 Financials            
## # ℹ 491 more rows
…
## [1] 142

data_return <- data_return %>% filter(ISIN %in% ISIN_vec)    
data_return

## # A tibble: 13,632 × 6
##    ISIN         Date       Symbol Name   Sector Return_monthly
##    <chr>        <date>     <chr>  <chr>  <chr>           <dbl>
##  1 BMG0451H1170 2015-01-30 ARCHER Archer Energy   -0.2400990  
##  2 BMG0451H1170 2015-02-27 ARCHER Archer Energy   -0.2280130  
##  3 BMG0451H1170 2015-03-31 ARCHER Archer Energy    0.008438819
##  4 BMG0451H1170 2015-04-30 ARCHER Archer Energy    0.1673640  
##  5 BMG0451H1170 2015-05-29 ARCHER Archer Energy   -0.03942652 
##  6 BMG0451H1170 2015-06-30 ARCHER Archer Energy    0.007462687
##  7 BMG0451H1170 2015-07-31 ARCHER Archer Energy   -0.2148148  
##  8 BMG0451H1170 2015-08-31 ARCHER Archer Energy   -0.4009434  
##  9 BMG0451H1170 2015-09-30 ARCHER Archer Energy   -0.1299213  
## 10 BMG0451H1170 2015-10-30 ARCHER Archer Energy   -0.07692308 
## # ℹ 13,622 more rows

Get sample data for two assets and create an equally-weighted portfolio of them.

k <- 2 # number of asset
sample_data <- data_return %>% 
    filter(ISIN %in% c("BMG0451H1170", "NO0003079709"))
sample_data

## # A tibble: 192 × 6
##    ISIN         Date       Symbol Name   Sector Return_monthly
##    <chr>        <date>     <chr>  <chr>  <chr>           <dbl>
##  1 BMG0451H1170 2015-01-30 ARCHER Archer Energy   -0.2400990  
##  2 BMG0451H1170 2015-02-27 ARCHER Archer Energy   -0.2280130  
##  3 BMG0451H1170 2015-03-31 ARCHER Archer Energy    0.008438819
##  4 BMG0451H1170 2015-04-30 ARCHER Archer Energy    0.1673640  
##  5 BMG0451H1170 2015-05-29 ARCHER Archer Energy   -0.03942652 
##  6 BMG0451H1170 2015-06-30 ARCHER Archer Energy    0.007462687
##  7 BMG0451H1170 2015-07-31 ARCHER Archer Energy   -0.2148148  
##  8 BMG0451H1170 2015-08-31 ARCHER Archer Energy   -0.4009434  
##  9 BMG0451H1170 2015-09-30 ARCHER Archer Energy   -0.1299213  
## 10 BMG0451H1170 2015-10-30 ARCHER Archer Energy   -0.07692308 
## # ℹ 182 more rows
…
Risk-adjusted returns

Excess return and Sharpe ratio.

## excess return
f_name <- "data/NO_Rf-OSEBX_2015-2023_monthly.csv"
rfr <- read_csv(f_name)
rfr <- rfr %>% mutate(yrmon=as.yearmon(Date))
ptf_ret3 <- ptf_rebal$returns %>% 
    data.frame(row.names = index(ptf_bh$returns)) %>% 
    as_tibble(rownames="Date") %>% 
    mutate(yrmon=as.yearmon(Date))
bind_cols(ptf_ret, ptf_ret3) # cross validate hand and computer calculations

## # A tibble: 96 × 4
##            ...1 Date       portfolio.returns yrmon    
##           <dbl> <chr>                  <dbl> <yearmon>
##  1 -0.1229900   2015-01-31      -0.1229900   Jan 2015 
##  2 -0.04300157  2015-02-28      -0.04300157  Feb 2015 
##  3  0.02235663  2015-03-31       0.02235663  Mar 2015 
##  4  0.2472780   2015-04-30       0.2472780   Apr 2015 
##  5  0.003363661 2015-05-31       0.003363661 May 2015 
##  6 -0.03670870  2015-06-30      -0.03670870  Jun 2015 
##  7 -0.007408891 2015-07-31      -0.007408891 Jul 2015 
##  8 -0.2538050   2015-08-31      -0.2538050   Aug 2015 
##  9 -0.06122813  2015-09-30      -0.06122813  Sep 2015 
## 10  0.08190913  2015-10-31       0.08190913  Oct 2015 
## # ℹ 86 more rows

Merge with risk free rate.

colnames(ptf_ret3)[2] <- "port_ret"
ptf_ret3 <- ptf_ret3 %>% 
    left_join(rfr[,-1], by="yrmon") %>% 
    mutate(excess_ret = port_ret-rf_1month)
ptf_ret3

## # A tibble: 96 × 7
##    Date           port_ret yrmon     mkt_return_monthly rf_1month rf_annualized
##    <chr>             <dbl> <yearmon>              <dbl>     <dbl>         <dbl>
##  1 2015-01-31 -0.1229900   Jan 2015         0.03498025    0.0012    0.01449542 
##  2 2015-02-28 -0.04300157  Feb 2015         0.03262385    0.00113   0.01364459 
##  3 2015-03-31  0.02235663  Mar 2015         0.005782596   0.00127   0.01534690 
##  4 2015-04-30  0.2472780   Apr 2015         0.03255810    0.00123   0.01486026 
##  5 2015-05-31  0.003363661 May 2015         0.009884897   0.00117   0.01413070 
##  6 2015-06-30 -0.03670870  Jun 2015        -0.02566288    0.00102   0.0123089  
##  7 2015-07-31 -0.007408891 Jul 2015         0.01560936    0.00097   0.01170230 
##  8 2015-08-31 -0.2538050   Aug 2015        -0.07016421    0.00095   0.01145975 
##  9 2015-09-30 -0.06122813  Sep 2015        -0.02072041    0.00083   0.01000559 
## 10 2015-10-31  0.08190913  Oct 2015         0.05749500    0.0008    0.009642353
##      excess_ret
##           <dbl>
##  1 -0.1241900  
##  2 -0.04413157 
##  3  0.02108663 
##  4  0.2460480  
##  5  0.002193661
##  6 -0.03772870 
##  7 -0.008378891
##  8 -0.2547550  
##  9 -0.06205813 
## 10  0.08110913 
## # ℹ 86 more rows
…
